\relax 
\providecommand\hyper@newdestlabel[2]{}
\providecommand*\new@tpo@label[2]{}
\catcode `"\active 
\catcode `-\active 
\providecommand\HyperFirstAtBeginDocument{\AtBeginDocument}
\HyperFirstAtBeginDocument{\ifx\hyper@anchor\@undefined
\global\let\oldcontentsline\contentsline
\gdef\contentsline#1#2#3#4{\oldcontentsline{#1}{#2}{#3}}
\global\let\oldnewlabel\newlabel
\gdef\newlabel#1#2{\newlabelxx{#1}#2}
\gdef\newlabelxx#1#2#3#4#5#6{\oldnewlabel{#1}{{#2}{#3}}}
\AtEndDocument{\ifx\hyper@anchor\@undefined
\let\contentsline\oldcontentsline
\let\newlabel\oldnewlabel
\fi}
\fi}
\global\let\hyper@last\relax 
\gdef\HyperFirstAtBeginDocument#1{#1}
\providecommand\HyField@AuxAddToFields[1]{}
\providecommand\HyField@AuxAddToCoFields[2]{}
\bibstyle{plain}
\citation{zhang}
\citation{DONDERS20061087,FARHANGFAR20083692}
\citation{Batista03astudy}
\citation{Bengal}
\citation{Salzberg1994}
\citation{SILVARAMIREZ201565}
\citation{rubin,baraldi}
\select@language{czech}
\@writefile{toc}{\select@language{czech}}
\@writefile{lof}{\select@language{czech}}
\@writefile{lot}{\select@language{czech}}
\@writefile{toc}{\contentsline {section}{\numberline {1}\IeC {\'U}vod}{1}{section.1}}
\@writefile{toc}{\contentsline {subsection}{\numberline {1.1}Zad\IeC {\'a}n\IeC {\'\i } -- Vliv single imputation metod na klasifika\IeC {\v c}n\IeC {\'\i } chybu}{1}{subsection.1.1}}
\@writefile{toc}{\contentsline {subsection}{\numberline {1.2}SOTA}{1}{subsection.1.2}}
\@writefile{toc}{\contentsline {subsubsection}{\numberline {1.2.1}Pou\IeC {\v z}\IeC {\'\i }van\IeC {\'e} algoritmy}{1}{subsubsection.1.2.1}}
\@writefile{toc}{\contentsline {subsubsection}{\numberline {1.2.2}Struktura dat}{1}{subsubsection.1.2.2}}
\citation{soonhin_2016}
\@writefile{toc}{\contentsline {section}{\numberline {2}Vstupn\IeC {\'\i } data}{2}{section.2}}
\@writefile{toc}{\contentsline {section}{\numberline {3}Metody}{2}{section.3}}
\newlabel{eq:rmsle}{{1}{2}{Metody}{equation.3.1}{}}
\@writefile{toc}{\contentsline {section}{\numberline {4}V\IeC {\'y}sledky}{2}{section.4}}
\@writefile{toc}{\contentsline {subsection}{\numberline {4.1}P\IeC {\v r}esnost rekonstrukce dat}{2}{subsection.4.1}}
\@writefile{toc}{\contentsline {subsection}{\numberline {4.2}P\IeC {\v r}esnost klasifikace/regrese}{2}{subsection.4.2}}
\@writefile{lot}{\contentsline {table}{\numberline {1}{\ignorespaces Optim\IeC {\'a}ln\IeC {\'\i } parametry}}{3}{table.1}}
\newlabel{table:parameters}{{1}{3}{Optimální parametry}{table.1}{}}
\@writefile{lof}{\contentsline {figure}{\numberline {1}{\ignorespaces Dataset wine, RMSLE}}{3}{figure.1}}
\newlabel{fig:rmsle-wine}{{1}{3}{Dataset wine, RMSLE}{figure.1}{}}
\@writefile{lof}{\contentsline {figure}{\numberline {2}{\ignorespaces Dataset cancer, RMSLE}}{4}{figure.2}}
\newlabel{fig:rmsle-cancer}{{2}{4}{Dataset cancer, RMSLE}{figure.2}{}}
\@writefile{lof}{\contentsline {figure}{\numberline {3}{\ignorespaces Dataset magic, RMSLE}}{4}{figure.3}}
\newlabel{fig:rmsle-magic}{{3}{4}{Dataset magic, RMSLE}{figure.3}{}}
\bibdata{reference}
\bibcite{baraldi}{{1}{}{{}}{{}}}
\bibcite{Batista03astudy}{{2}{}{{}}{{}}}
\bibcite{DONDERS20061087}{{3}{}{{}}{{}}}
\bibcite{FARHANGFAR20083692}{{4}{}{{}}{{}}}
\bibcite{Bengal}{{5}{}{{}}{{}}}
\bibcite{rubin}{{6}{}{{}}{{}}}
\bibcite{Salzberg1994}{{7}{}{{}}{{}}}
\bibcite{SILVARAMIREZ201565}{{8}{}{{}}{{}}}
\bibcite{soonhin_2016}{{9}{}{{}}{{}}}
\bibcite{zhang}{{10}{}{{}}{{}}}
\providecommand\NAT@force@numbers{}\NAT@force@numbers
\@writefile{toc}{\contentsline {section}{\numberline {5}Z\IeC {\'a}v\IeC {\v e}r}{5}{section.5}}
\@writefile{lof}{\contentsline {figure}{\numberline {4}{\ignorespaces Dataset wine, klasifik\IeC {\'a}tor kNN}}{6}{figure.4}}
\newlabel{fig:w-knn}{{4}{6}{Dataset wine, klasifikátor kNN}{figure.4}{}}
\@writefile{lof}{\contentsline {figure}{\numberline {5}{\ignorespaces Dataset wine, klasifik\IeC {\'a}tor Rozhodovac\IeC {\'\i } strom}}{6}{figure.5}}
\newlabel{fig:w-tree}{{5}{6}{Dataset wine, klasifikátor Rozhodovací strom}{figure.5}{}}
\@writefile{lof}{\contentsline {figure}{\numberline {6}{\ignorespaces Dataset wine, klasifik\IeC {\'a}tor N\IeC {\'a}hodn\IeC {\'y} les}}{7}{figure.6}}
\newlabel{fig:w-forest}{{6}{7}{Dataset wine, klasifikátor Náhodný les}{figure.6}{}}
\@writefile{lof}{\contentsline {figure}{\numberline {7}{\ignorespaces Dataset wine, klasifik\IeC {\'a}tor MLP}}{7}{figure.7}}
\newlabel{fig:w-mlp}{{7}{7}{Dataset wine, klasifikátor MLP}{figure.7}{}}
\@writefile{lof}{\contentsline {figure}{\numberline {8}{\ignorespaces Dataset cancer, klasifik\IeC {\'a}tor kNN}}{8}{figure.8}}
\newlabel{fig:c-knn}{{8}{8}{Dataset cancer, klasifikátor kNN}{figure.8}{}}
\@writefile{lof}{\contentsline {figure}{\numberline {9}{\ignorespaces Dataset cancer, klasifik\IeC {\'a}tor Rozhodovac\IeC {\'\i } strom}}{8}{figure.9}}
\newlabel{fig:c-tree}{{9}{8}{Dataset cancer, klasifikátor Rozhodovací strom}{figure.9}{}}
\@writefile{lof}{\contentsline {figure}{\numberline {10}{\ignorespaces Dataset cancer, klasifik\IeC {\'a}tor N\IeC {\'a}hodn\IeC {\'y} les}}{9}{figure.10}}
\newlabel{fig:c-forest}{{10}{9}{Dataset cancer, klasifikátor Náhodný les}{figure.10}{}}
\@writefile{lof}{\contentsline {figure}{\numberline {11}{\ignorespaces Dataset cancer, klasifik\IeC {\'a}tor MLP}}{9}{figure.11}}
\newlabel{fig:c-mlp}{{11}{9}{Dataset cancer, klasifikátor MLP}{figure.11}{}}
\@writefile{lof}{\contentsline {figure}{\numberline {12}{\ignorespaces Dataset magic, klasifik\IeC {\'a}tor kNN}}{10}{figure.12}}
\newlabel{fig:m-knn}{{12}{10}{Dataset magic, klasifikátor kNN}{figure.12}{}}
\@writefile{lof}{\contentsline {figure}{\numberline {13}{\ignorespaces Dataset magic, klasifik\IeC {\'a}tor Rozhodovac\IeC {\'\i } strom}}{10}{figure.13}}
\newlabel{fig:m-tree}{{13}{10}{Dataset magic, klasifikátor Rozhodovací strom}{figure.13}{}}
\@writefile{lof}{\contentsline {figure}{\numberline {14}{\ignorespaces Dataset magic, klasifik\IeC {\'a}tor N\IeC {\'a}hodn\IeC {\'y} les}}{11}{figure.14}}
\newlabel{fig:m-forest}{{14}{11}{Dataset magic, klasifikátor Náhodný les}{figure.14}{}}
\@writefile{lof}{\contentsline {figure}{\numberline {15}{\ignorespaces Dataset magic, klasifik\IeC {\'a}tor MLP}}{11}{figure.15}}
\newlabel{fig:m-mlp}{{15}{11}{Dataset magic, klasifikátor MLP}{figure.15}{}}
